[gd_scene load_steps=7 format=2]

[ext_resource path="res://fonts/usuzi.ttf" type="DynamicFontData" id=1]
[ext_resource path="res://assets/dialogs/black.png" type="Texture" id=2]
[ext_resource path="res://assets/dialogs/down.png" type="Texture" id=3]
[ext_resource path="res://assets/dialogs/yellow.png" type="Texture" id=4]
[ext_resource path="res://assets/dialogs/up.png" type="Texture" id=5]

[sub_resource type="DynamicFont" id=1]
size = 24
outline_size = 2
outline_color = Color( 0, 0, 0, 1 )
font_data = ExtResource( 1 )

[node name="dialog" type="Node2D"]

[node name="up" type="Sprite" parent="."]
position = Vector2( 0, 0.439003 )
scale = Vector2( 0.2, 0.2 )
texture = ExtResource( 5 )

[node name="yellow" type="Sprite" parent="."]
position = Vector2( 0.999981, 95.9341 )
scale = Vector2( 1, 2.266 )
texture = ExtResource( 4 )

[node name="down" type="Sprite" parent="."]
position = Vector2( 0, 191.698 )
scale = Vector2( 0.2, 0.2 )
texture = ExtResource( 3 )

[node name="black" type="Sprite" parent="."]
position = Vector2( 0.453625, 95.9346 )
scale = Vector2( 0.20557, 0.666881 )
texture = ExtResource( 2 )

[node name="text" type="Label" parent="."]
margin_left = -130.0
margin_top = 10.0
margin_right = 132.0
margin_bottom = 132.0
custom_fonts/font = SubResource( 1 )
custom_colors/font_color = Color( 1, 1, 1, 1 )
custom_colors/font_outline_modulate = Color( 0, 0, 0, 1 )
text = "YOYOYOYO
YOYOYOYOYO
Yoyoyoyoyoyo
yoyoyoyoyoyo
yoyoyooyoy"
__meta__ = {
"_edit_use_anchors_": false
}
